…
```
get_decennial(geography = "state",
              variables = c(**total_population = "P1_001N",**
 **asian_population = "P1_006N"**),
year = 2020) %>%
  arrange(NAME) 
```

在变量参数中，这段代码指定了变量的新名称，后面跟着等号和原始变量名称。`c()`函数允许你一次重命名多个变量。

现在更容易看到你正在处理的变量了：

```
#> # A tibble: 104 × 4
#>    GEOID NAME       variable            value
#>    <chr> <chr>      <chr>               <dbl>
#>  1 01    Alabama    total_population  5024279
#>  2 01    Alabama    asian_population    76660
#>  3 02    Alaska     total_population   733391
#>  4 02    Alaska     asian_population    44032
#>  5 04    Arizona    total_population  7151502
#>  6 04    Arizona    asian_population   257430
#>  7 05    Arkansas   total_population  3011524
#>  8 05    Arkansas   asian_population    51839
#>  9 06    California total_population 39538223
#> 10 06    California asian_population  6085947
#> # ... with 94 more rows 
```
…
结果输出与前一部分的输出完全相同：

```
#> # A tibble: 52 × 5
#>    GEOID NAME                 variable          value      pct
#>    <chr> <chr>                <chr>             <dbl>    <dbl>
#>  1 01    Alabama              asian_popula...   76660 0.015258
#>  2 02    Alaska               asian_popula...   44032 0.060039
#>  3 04    Arizona              asian_popula...  257430 0.035997
#>  4 05    Arkansas             asian_popula...   51839 0.017214
#>  5 06    California           asian_popula... 6085947 0.153930
#>  6 08    Colorado             asian_popula...  199827 0.034610
#>  7 09    Connecticut          asian_popula...  172455 0.047825
#>  8 10    Delaware             asian_popula...   42699 0.043133
#>  9 11    District of Columbia asian_popula...   33545 0.048648
#> 10 12    Florida              asian_popula...  643682 0.029886
#> # 42 more rows 
```
…
