…
labs(

    y = NULL,

    x = "Cases per 100,000"

)

``` 
```

报告中的文本和图表来自名为 cases 的数据框，如下所示：

```
#> # A tibble: 51 × 4
#>    total_cases state.name  cases_per_100000 case_rank
#>    <chr>       <chr>                  <dbl>     <int>
#>  1 1302945     Alabama                26573        18
#>  2 246345      Alaska                 33675         2
#>  3 2025435     Arizona                27827        10
#>  4 837154      Arkansas               27740        12
#>  5 9274208     California             23472        35
#>  6 1388702     Colorado               24115        33
#>  7 766172      Connecticut            21490        42
#>  8 264376      Delaware               27150        13
#>  9 5965411     Florida                27775        11
#> 10 2521664     Georgia                23750        34
#> # ... with 41 more rows 
```
…
首先，这段代码过滤了 cases 数据框（它包含所有州的数据），只保留 params$state 所指定的州的数据。接着，pull() 函数从该数据中提取单一值，scales 包中的 comma() 函数对其进行格式化，使 state_cases_per_100000 显示为 26,573（而不是 26573）。最后，state_cases_per_100000 和 state_case_rank 变量被集成到内联 R 代码中。

#### 在可视化代码中包含参数

params$state 参数在其他地方也有使用，比如在报告的柱状图中突出显示某个州。要查看如何实现这一点，请看以下来自最后一个代码块的部分：

```
cases %>%
  mutate(highlight_state = if_else(state.name == params$state, "Y", "N")) 
```

这段代码创建了一个名为 highlight_state 的变量。在 cases 数据框中，代码检查 state.name 是否等于 params$state。如果相等，highlight_state 的值为 Y；否则为 N。运行这两行代码后，相关列的情况如下所示：

```
#> # A tibble: 51 × 2
#>    state.name  highlight_state
#>    <chr>       <chr>
#>  1 Alabama     Y
#>  2 Alaska      N
#>  3 Arizona     N
#>  4 Arkansas    N
#>  5 California  N
#>  6 Colorado    N
#>  7 Connecticut N
#>  8 Delaware    N
#>  9 Florida     N
#> 10 Georgia     N
#> #  ... with 41 more rows 
```
…
```
**reports <- tibble(**
 **input = "urban-covid-budget-report.Rmd",**
 **output_file = str_glue("{state}.xhtml"),**
 **params = map(state, ~ list(state = .))**
**)** 
```

这段代码生成一个包含 51 行和 3 个变量的 tibble。在所有行中，输入变量被设置为 R Markdown 文档的名称。`output_file`的值通过`str_glue()`函数设置为等于州名，后跟.*html*（例如，*Alabama.xhtml*）。

`params`变量是三者中最复杂的。它被称为*命名列表*。这种数据结构将数据以`state: state_name`的格式放入 R Markdown 文档的 YAML 中。`purrr`包中的`map()`函数创建命名列表，告诉 R 将每一行的值设置为`state = "Alabama"`，然后是`state = "Alaska"`，依此类推，直到所有州的名称。您可以在`reports` tibble 中看到这些变量：

```
#> # A tibble: 51 × 3
#>    input                         output_file    params
#>    <chr>                         <glue>         <list>
#>  1 urban-covid-budget-report.Rmd Alabama.xhtml   <named list>
#>  2 urban-covid-budget-report.Rmd Alaska.xhtml    <named list>
#>  3 urban-covid-budget-report.Rmd Arizona.xhtml   <named list>
#>  4 urban-covid-budget-report.Rmd Arkansas.xhtml  <named list>
#>  5 urban-covid-budget-report.Rmd California...  <named list>
#>  6 urban-covid-budget-report.Rmd Colorado.xhtml  <named list>
#>  7 urban-covid-budget-report.Rmd Connecticut... <named list>
#>  8 urban-covid-budget-report.Rmd Delaware.xhtml  <named list>
#>  9 urban-covid-budget-report.Rmd Florida.xhtml   <named list>
#> 10 urban-covid-budget-report.Rmd Georgia.xhtml   <named list>
#> # ... with 41 more rows 
```
…
