…
这告诉 R 仅保留变量名称等于某个值的观察。代码从 `dm_perc_cat_hubs_raw` 数据框开始，然后对其进行过滤，并将其保存为一个名为 southwest_2003 的新对象：

```
southwest_2003 <- dm_perc_cat_hubs %>%
  filter(hub == "Southwest") %>%
  filter(year == 2003) 
```

要查看这个对象并查看您可以使用的变量，请在控制台中输入 southwest_2003，这应该会返回以下输出：

```
#> # A tibble: 255 × 7
#>    date       hub  category  percentage  year  week max_week
#>    <date>    <fct> <fct>          <dbl> <dbl> <dbl>    <dbl>
#>  1 2003-12-30 Sout... D0           0.0718  2003    52       52
#>  2 2003-12-30 Sout... D1           0.0828  2003    52       52
#>  3 2003-12-30 Sout... D2           0.2693  2003    52       52
#>  4 2003-12-30 Sout... D3           0.3108  2003    52       52
#>  5 2003-12-30 Sout... D4           0.0796  2003    52       52
#>  6 2003-12-23 Sout... D0           0.0823  2003    51       52
#>  7 2003-12-23 Sout... D1           0.1312  2003    51       52
#>  8 2003-12-23 Sout... D2           0.1886  2003    51       52
#>  9 2003-12-23 Sout... D3           0.3822  2003    51       52
#> 10 2003-12-23 Sout... D4           0.0828  2003    51       52
#> # 245 more rows 
```
…
