…
要确认 tidyverse 包是否已正确安装，在 RStudio 的右下角窗格中点击**Packages**标签。搜索 tidyverse，你应该会看到它弹出。

现在您已经安装了 tidyverse，接下来将开始使用它。虽然您只需要在每台计算机上*安装*一次包，但每次重新启动 RStudio 时，您需要*加载*它们。返回到*sample-code.R*文件，并使用 tidyverse 包中的函数重新导入数据（您的文件路径会略有不同）：

```
library(tidyverse)

population_data_2 <- read_csv(file = "/`Users/davidkeyes/Documents/`population-by-state.csv") 
```

脚本顶部的`library(tidyverse)`语句加载了 tidyverse 包。然后，包中的 read_csv()函数用于导入数据。请注意，函数名称中的下划线（_）替代了句点（.）；这与您之前使用的基础 R 函数不同。使用 read_csv()导入 CSV 文件实现了相同的目标——创建一个对象，在本例中，称为 population_data_2。在控制台中输入 population_data_2，您应该会看到以下输出：

```
#> # A tibble: 52 × 9
#>     rank State               Pop  Growth  Pop2018  Pop2010
#>    <dbl> <chr>             <dbl>   <dbl>    <dbl>    <dbl>
#>  1     1 California     39613493  0.0038 39461588 37319502
#>  2     2 Texas          29730311  0.0385 28628666 25241971
#>  3     3 Florida        21944577  0.0330 21244317 18845537
#>  4     4 New York       19299981 -0.0118 19530351 19399878
#>  5     5 Pennsylvania   12804123  0.0003 12800922 12711160
#>  6     6 Illinois       12569321 -0.0121 12723071 12840503
#>  7     7 Ohio           11714618  0.0033 11676341 11539336
#>  8     8 Georgia        10830007  0.0303 10511131  9711881
#>  9     9 North Carolina 10701022  0.0308 10381615  9574323
#> 10    10 Michigan        9992427  0.0008  9984072  9877510
#> # 42 more rows
#> # 3 more variables: growthSince2010 <dbl>, Percent <dbl>,
#> #   density <dbl> 
```
…
