…
在函数体内，这段代码调用了 tidycensus 中的 get_acs() 函数，从州级别检索人口数据。但与返回函数的默认输出不同，它将难以记住的变量名更新为易于理解的名称，例如 White 和 Black/African American，并将其保存为名为 race_ethnicity_data 的对象。然后，代码使用 race_ethnicity_data 对象来返回 get_acs_race_ethnicity() 函数运行时的数据。

要运行这个函数，输入以下内容：

```
get_acs_race_ethnicity() 
```

这样做应该返回易于阅读的种族和族裔组名：

```
#> # A tibble: 416 × 5
#>    GEOID NAME    variable                     estimate   moe
#>    <chr> <chr>   <chr>                           <dbl> <dbl>
#>  1 01    Alabama White                         3241003  2076
#>  2 01    Alabama Black/African American        1316314  3018
#>  3 01    Alabama American Indian/Alaska Na...    17417   941
#>  4 01    Alabama Asian                           69331  1559
#>  5 01    Alabama Native Hawaiian/Pacific I...     1594   376
#>  6 01    Alabama Other race                      12504  1867
#>  7 01    Alabama Multi-Race                     114853  3835
#>  8 01    Alabama Hispanic/Latino                224659   413
#>  9 02    Alaska  White                          434515  1067
#> 10 02    Alaska  Black/African American          22787   769
#> # 406 more rows 
```
…
这段代码将 clean_variable_names 参数添加到 get_acs_race_ethnicity() 中，并指定其默认值为 FALSE。然后，在函数体内，一个 if 语句表示如果参数为 TRUE，则变量名应被覆盖为 snake case 格式 ❶。如果参数为 FALSE，变量名将保持不变。

如果你现在运行该函数，什么也不会改变，因为新参数默认设置为 FALSE。尝试将 clean_variable_names 设置为 TRUE，如下所示：

```
get_acs_race_ethnicity(clean_variable_names = TRUE) 
```

这个函数调用应该返回具有一致变量名的数据：

```
#> # A tibble: 416 × 5
#>    geoid name    variable                     estimate   moe
#>    <chr> <chr>   <chr>                           <dbl> <dbl>
#>  1 01    Alabama White                         3241003  2076
#>  2 01    Alabama Black/African American        1316314  3018
#>  3 01    Alabama American Indian/Alaska Na...    17417   941
#>  4 01    Alabama Asian                           69331  1559
#>  5 01    Alabama Native Hawaiian/Pacific I...     1594   376
#>  6 01    Alabama Other race                      12504  1867
#>  7 01    Alabama Multi-Race                     114853  3835
#>  8 01    Alabama Hispanic/Latino                224659   413
#>  9 02    Alaska  White                          434515  1067
#> 10 02    Alaska  Black/African American          22787   769
#> # 406 more rows 
```
…
  race_ethnicity_data
} 
```

尝试通过传递设置为 "state" 的 geography 参数来运行您的函数：

```
get_acs_race_ethnicity**(geography = "state")** 
```

这应该返回以下内容：

```
#> # A tibble: 416 × 5
#>    GEOID NAME    variable                     estimate   moe
#>    <chr> <chr>   <chr>                           <dbl> <dbl>
#>  1 01    Alabama White                         3241003  2076
#>  2 01    Alabama Black/African American        1316314  3018
#>  3 01    Alabama American Indian/Alaska Na...    17417   941
#>  4 01    Alabama Asian                           69331  1559
#>  5 01    Alabama Native Hawaiian/Pacific I...     1594   376
#>  6 01    Alabama Other race                      12504  1867
#>  7 01    Alabama Multi-Race                     114853  3835
#>  8 01    Alabama Hispanic/Latino                224659   413
#>  9 02    Alaska  White                          434515  1067
#> 10 02    Alaska  Black/African American          22787   769
#> # 406 more rows 
```
…
