…
julia> covdat[:, :Country_Region] === covdat.Country_Region
false
```

这告诉我们，尽管左右两边包含相同的值，但它们不是同一个对象。语法`dataframe[:, :col]`会创建列的*副本*并将其作为`Vector`返回。但`covdat.Country_Region`是对列的*引用*。如果你有选择的话，避免做不必要的副本，因为这会变慢并消耗内存。而且，如果你想通过赋值给单个元素来修改某列，你必须使用引用而非副本，正如示例 10-10 中所示。

```
julia> covdat.Country_Region[1] = "Disneyworld"
"Disneyworld"

julia> covdat
274×432 DataFrame
 Row | Province_State  Country_Region      Lat       Long    ...
     | String?         String              Float64?  Float64 ...
--------------------------------------------------------------
   1 | missing         Disneyworld          33.9391   67.71  ...
   2 | missing         Albania              41.1533   20.168
  :  |       :                 :              :         :
 274 | missing         Zimbabwe            -19.0154   29.154
                              429 columns and 271 rows omitted
```
…
*图 10-17：最高的最大工作量*

对数据框中的数据进行汇总统计是如此常见，以至于有一个函数可以为我们执行上述工作，但了解如何“手动”操作也是很有用的，以防你需要一些它没有提供的功能。这个函数叫做`describe()`，它是这样工作的：

```
julia> describe(cdcn, :max; cols=Not(:d))
189×2 DataFrame
 Row | variable             max
     | Symbol               Int64
------------------------------------
   1 | Afghanistan            56192
   2 | Albania               122295
   3 | Algeria               116438
   4 | Andorra                11638
   5 | Angola                 21836
   6 | Antigua_and_Barbuda     1080
  :  |          :              :
 184 | Venezuela             153315
 185 | Vietnam                 2576
 186 | West_Bank_and_Gaza    230076
 187 | Yemen                   3703
 188 | Zambia                 86993
 189 | Zimbabwe               36749
                    177 rows omitted
```
…
➋ julia> length(covdat.Country_Region) - length(cvgp)
   82

➌ julia> cvgp[1]
   1×432 SubDataFrame
    Row | Province_State  Country_Region  Lat       Long      _ ...
        | String?         String          Float64?  Float64?  I ...
   --------------------------------------------------------------
      1 | missing         Afghanistan      33.9391     67.71    ...
                                              428 columns omitted

➍ julia> cvgp[183]
   12×432 SubDataFrame
    Row | Province_State                     Country_Region  La ...
        | String?                            String          Fl ...
   --------------------------------------------------------------
      1 | Anguilla                           United Kingdom   1 ...
      2 | Bermuda                            United Kingdom   3
     :  |                 :                        :
     12 | missing                            United Kingdom   5
                                   430 columns and 9 rows omitted
```
…
第二行删除了任何人口为零的行（共有三行）。由于我们计划将绝对数除以人口以转换为比率，因此需要删除这些行。下面是转换的过程：

```
for c in 2:5
    cbc[!, c] = cbc[!, c] ./ cbc[!, 7]
end
```

到此为止，我们的数据框看起来是这样的：

```
julia> cbc
3143×7 DataFrame
  Row | Areaname        Larceny      Murder      MVTheft      Robber ...
      | String          Float64      Float64     Float64      Float6 ...
----------------------------------------------------------------------
    1 | Autauga, AL     0.0240025    0.0         0.00233967   0.0005 ...
    2 | Baldwin, AL     0.0121368    3.07571e-5  0.000842745  0.0002
    3 | Barbour, AL     0.00217303   0.0         0.000237675  3.3953
    4 | Bibb, AL        0.00673684   0.0         0.000842105  0.0001
    5 | Blount, AL      0.010139     0.0         0.00243481   0.0001 ...
    6 | Bullock, AL     0.00492027   0.0         0.0          0.0002
    7 | Butler, AL      0.0227653    9.83381e-5  0.00108172   0.0007
    8 | Calhoun, AL     0.0256511    4.46106e-5  0.00215915   0.0014
  :   |       :              :           :            :            :
 3137 | Sheridan, WY    0.0167767    0.0         0.000921795  3.6871 ...
 3138 | Sublette, WY    0.0387191    0.0         0.00262009   0.0
 3139 | Sweetwater, WY  0.0296249    2.68341e-5  0.00262974   0.0001
 3140 | Teton, WY       0.0197487    0.0         0.00149925   0.0001
 3141 | Uinta, WY       0.0283567    0.0         0.00190417   0.0002 ...
 3142 | Washakie, WY    0.00425093   0.0         0.000128816  0.0
 3143 | Weston, WY      0.0122008    0.0         0.0          0.0001
                                       3 columns and 3128 rows omitted
```
…
