…
The indexing expressions covdat[:, :Country_Region] and covdat.Country_Region both seem to return a Vector with contents identical to the Country_Region column of the dataframe called covdat. However, they are not identical:

julia> covdat[:, :Country_Region] == covdat.Country_Region
true

julia> covdat[:, :Country_Region] === covdat.Country_Region
false

This tells us that while the two left- and right-hand sides contain the same values, they are not the same object. The syntax dataframe[:, :col] makes a copy of the column and returns it as a Vector. But covdat.Country_Region is a reference to the column. If you have a choice, avoid making unnecessary copies, as it is slower and consumes memory. Also, if you want to mutate a column by assigning to individual elements, you must use a reference rather than a copy, as shown in Listing 10-10.

julia> covdat.Country_Region[1] = "Disneyworld"
"Disneyworld"

julia> covdat
274×432 DataFrame
 Row | Province_State  Country_Region      Lat       Long    ...
     | String?         String              Float64?  Float64 ...
--------------------------------------------------------------
   1 | missing         Disneyworld          33.9391   67.71  ...
   2 | missing         Albania              41.1533   20.168
  :  |       :                 :              :         :
 274 | missing         Zimbabwe            -19.0154   29.154
                              429 columns and 271 rows omitted
…
Figure 10-17: The highest maximum caseloads

The need for summary statistics of the data in a dataframe is so common that a function is available that does the foregoing work for us, but it’s good to know how to do it “manually,” in case you need something it doesn’t provide. That function is called describe(), and here’s how it works:

julia> describe(cdcn, :max; cols=Not(:d))
189×2 DataFrame
 Row | variable             max
     | Symbol               Int64
------------------------------------
   1 | Afghanistan            56192
   2 | Albania               122295
   3 | Algeria               116438
   4 | Andorra                11638
   5 | Angola                 21836
   6 | Antigua_and_Barbuda     1080
  :  |          :              :
 184 | Venezuela             153315
 185 | Vietnam                 2576
 186 | West_Bank_and_Gaza    230076
 187 | Yemen                   3703
 188 | Zambia                 86993
 189 | Zimbabwe               36749
                    177 rows omitted
…
➋ julia> length(covdat.Country_Region) - length(cvgp)
   82

➌ julia> cvgp[1]
   1×432 SubDataFrame
    Row | Province_State  Country_Region  Lat       Long      _ ...
        | String?         String          Float64?  Float64?  I ...
   --------------------------------------------------------------
      1 | missing         Afghanistan      33.9391     67.71    ...
                                              428 columns omitted

➍ julia> cvgp[183]
   12×432 SubDataFrame
    Row | Province_State                     Country_Region  La ...
        | String?                            String          Fl ...
   --------------------------------------------------------------
      1 | Anguilla                           United Kingdom   1 ...
      2 | Bermuda                            United Kingdom   3
     :  |                 :                        :
     12 | missing                            United Kingdom   5
                                   430 columns and 9 rows omitted
…
Clearly, the first thing we need to do is use the CSV package to read this and store it in a dataframe. The CSV.File function will detect that tabs are used as delimiters, and also that the first line is a header, but we should tell it about the comments:

cbc = CSV.File("census.dat", comment="#") |> DataFrame
cbc = cbc[cbc.EstimatedPop .!= 0, :]

The second line eliminates any rows (there were three) with a zero population. As we plan to divide the absolute numbers by population to convert them into rates, we need to delete those rows. Here is the conversion:

for c in 2:5
    cbc[!, c] = cbc[!, c] ./ cbc[!, 7]
end

At this point, our dataframe looks like this:

julia> cbc
3143×7 DataFrame
  Row | Areaname        Larceny      Murder      MVTheft      Robber ...
      | String          Float64      Float64     Float64      Float6 ...
----------------------------------------------------------------------
    1 | Autauga, AL     0.0240025    0.0         0.00233967   0.0005 ...
    2 | Baldwin, AL     0.0121368    3.07571e-5  0.000842745  0.0002
    3 | Barbour, AL     0.00217303   0.0         0.000237675  3.3953
    4 | Bibb, AL        0.00673684   0.0         0.000842105  0.0001
    5 | Blount, AL      0.010139     0.0         0.00243481   0.0001 ...
    6 | Bullock, AL     0.00492027   0.0         0.0          0.0002
    7 | Butler, AL      0.0227653    9.83381e-5  0.00108172   0.0007
    8 | Calhoun, AL     0.0256511    4.46106e-5  0.00215915   0.0014
  :   |       :              :           :            :            :
 3137 | Sheridan, WY    0.0167767    0.0         0.000921795  3.6871 ...
 3138 | Sublette, WY    0.0387191    0.0         0.00262009   0.0
 3139 | Sweetwater, WY  0.0296249    2.68341e-5  0.00262974   0.0001
 3140 | Teton, WY       0.0197487    0.0         0.00149925   0.0001
 3141 | Uinta, WY       0.0283567    0.0         0.00190417   0.0002 ...
 3142 | Washakie, WY    0.00425093   0.0         0.000128816  0.0
 3143 | Weston, WY      0.0122008    0.0         0.0          0.0001
                                       3 columns and 3128 rows omitted
…
