…
The text and charts in the report come from the cases data frame, shown here:

#> # A tibble: 51 × 4
#>    total_cases state.name  cases_per_100000 case_rank
#>    <chr>       <chr>                  <dbl>     <int>
#>  1 1302945     Alabama                26573        18
#>  2 246345      Alaska                 33675         2
#>  3 2025435     Arizona                27827        10
#>  4 837154      Arkansas               27740        12
#>  5 9274208     California             23472        35
#>  6 1388702     Colorado               24115        33
#>  7 766172      Connecticut            21490        42
#>  8 264376      Delaware               27150        13
#>  9 5965411     Florida                27775        11
#> 10 2521664     Georgia                23750        34
#> # ... with 41 more rows
…
First, this code filters the cases data frame (which contains data for all states) to keep only the data for the state in params$state. Then, the pull() function gets a single value from that data, and the comma() function from the scales package applies formatting to make state_cases_per_100000 display as 26,573 (rather than 26573). Finally, the state_cases_per_100000 and state_case_rank variables are integrated into the inline R code.

Including Parameters in Visualization Code

The params$state parameter is used in other places as well, such as to highlight a state in the report’s bar chart. To see how to accomplish this, look at the following section from the last code chunk:

cases %>%
  mutate(highlight_state = if_else(state.name == params$state, "Y", "N"))

This code creates a variable called highlight_state. Within the cases data frame, the code checks whether state.name is equal to params$state. If it is, highlight_state gets the value Y. If not, it gets N. Here’s what the relevant columns look like after you run these two lines:

#> # A tibble: 51 × 2
#>    state.name  highlight_state
#>    <chr>       <chr>
#>  1 Alabama     Y
#>  2 Alaska      N
#>  3 Arizona     N
#>  4 Arkansas    N
#>  5 California  N
#>  6 Colorado    N
#>  7 Connecticut N
#>  8 Delaware    N
#>  9 Florida     N
#> 10 Georgia     N
#> #  ... with 41 more rows
…
Rather than use render() with the input and output_file arguments, as you did earlier, you can pass it the params argument to give it parameters to use when knitting. To do so, create a tibble with the information needed to render all 51 reports and save it as an object called reports, which you’ll pass to the render() function, as follows:

reports <- tibble(
  input = "urban-covid-budget-report.Rmd",
  output_file = str_glue("{state}.xhtml"),
  params = map(state, ~ list(state = .))
)

This code generates a tibble with 51 rows and 3 variables. In all rows, the input variable is set to the name of the R Markdown document. The value of output_file is set with str_glue() to be equal to the name of the state, followed by.html (for example, Alabama.xhtml).

The params variable is the most complicated of the three. It is what’s known as a named list. This data structure puts the data in the state: state_name format needed for the R Markdown document’s YAML. The map() function from the purrr package creates the named list, telling R to set the value of each row as state = "Alabama", then state = "Alaska", and so on, for all of the states. You can see these variables in the reports tibble:

#> # A tibble: 51 × 3
#>    input                         output_file    params
#>    <chr>                         <glue>         <list>
#>  1 urban-covid-budget-report.Rmd Alabama.xhtml   <named list>
#>  2 urban-covid-budget-report.Rmd Alaska.xhtml    <named list>
#>  3 urban-covid-budget-report.Rmd Arizona.xhtml   <named list>
#>  4 urban-covid-budget-report.Rmd Arkansas.xhtml  <named list>
#>  5 urban-covid-budget-report.Rmd California...  <named list>
#>  6 urban-covid-budget-report.Rmd Colorado.xhtml  <named list>
#>  7 urban-covid-budget-report.Rmd Connecticut... <named list>
#>  8 urban-covid-budget-report.Rmd Delaware.xhtml  <named list>
#>  9 urban-covid-budget-report.Rmd Florida.xhtml   <named list>
#> 10 urban-covid-budget-report.Rmd Georgia.xhtml   <named list>
#> # ... with 41 more rows
…
