…
The best analogy for understanding packages also comes from the book Statistical Inference via Data Science. The functionality in base R is like the features built into a smartphone. A smartphone can do a lot on its own, but you usually want to install additional apps for specific tasks. Packages are like apps, giving you functionality beyond what’s built into base R. In Chapter 12, you’ll create your own R package.

You can install packages using the install.packages() function. You’ll be working with the tidyverse package, which provides a range of functions for data import, cleaning, analysis, visualization, and more. To install it, enter install.packages("tidyverse"). Typically, you’ll enter package installation code in the console rather than in a script file because you need to install a package only once on your computer to access its code in the future.

To confirm that the tidyverse package has been installed correctly, click the Packages tab on the bottom-right pane in RStudio. Search for tidyverse, and you should see it pop up.

Now that you’ve installed the tidyverse, you’ll put it to use. Although you need to install packages only once per computer, you need to load them each time you restart RStudio. Return to the sample-code.R file and reimport your data using a function from the tidyverse package (your filepath will look slightly different):

library(tidyverse)

population_data_2 <- read_csv(file = "/Users/davidkeyes/Documents/population-by-state.csv")

At the top of the script, the line library(tidyverse) loads the tidyverse package. Then, the package’s read_csv() function imports the data. Note the underscore (_) in place of the period (.) in the function’s name; this differs from the base R function you used earlier. Using read_csv() to import CSV files achieves the same goal of creating an object, however—in this case, one called population_data_2. Enter population_data_2 in the console, and you should see this output:

#> # A tibble: 52 × 9
#>     rank State               Pop  Growth  Pop2018  Pop2010
#>    <dbl> <chr>             <dbl>   <dbl>    <dbl>    <dbl>
#>  1     1 California     39613493  0.0038 39461588 37319502
#>  2     2 Texas          29730311  0.0385 28628666 25241971
#>  3     3 Florida        21944577  0.0330 21244317 18845537
#>  4     4 New York       19299981 -0.0118 19530351 19399878
#>  5     5 Pennsylvania   12804123  0.0003 12800922 12711160
#>  6     6 Illinois       12569321 -0.0121 12723071 12840503
#>  7     7 Ohio           11714618  0.0033 11676341 11539336
#>  8     8 Georgia        10830007  0.0303 10511131  9711881
#>  9     9 North Carolina 10701022  0.0308 10381615  9574323
#> 10    10 Michigan        9992427  0.0008  9984072  9877510
#> # 42 more rows
#> # 3 more variables: growthSince2010 <dbl>, Percent <dbl>,
#> #   density <dbl>
…
