…
Scherer and Karamanis’s final plot consists of many years and regions. To see how they created it, we’ll start by looking at just the Southwest region in 2003.

First, you need to create a data frame. You’ll use the filter() function twice: the first time to keep only data for the Southwest region, and the second time to keep only data from 2003. In both cases, you use the following syntax:

filter(variable_name == value)

This tells R to keep only observations where variable_name is equal to some value. The code starts with the dm_perc_cat_hubs_raw data frame before filtering it and then saving it as a new object called southwest_2003:

southwest_2003 <- dm_perc_cat_hubs %>%
  filter(hub == "Southwest") %>%
  filter(year == 2003)

To take a look at this object and see the variables you have to work with, enter southwest_2003 in the console, which should return this output:

#> # A tibble: 255 × 7
#>    date       hub  category  percentage  year  week max_week
#>    <date>    <fct> <fct>          <dbl> <dbl> <dbl>    <dbl>
#>  1 2003-12-30 Sout... D0           0.0718  2003    52       52
#>  2 2003-12-30 Sout... D1           0.0828  2003    52       52
#>  3 2003-12-30 Sout... D2           0.2693  2003    52       52
#>  4 2003-12-30 Sout... D3           0.3108  2003    52       52
#>  5 2003-12-30 Sout... D4           0.0796  2003    52       52
#>  6 2003-12-23 Sout... D0           0.0823  2003    51       52
#>  7 2003-12-23 Sout... D1           0.1312  2003    51       52
#>  8 2003-12-23 Sout... D2           0.1886  2003    51       52
#>  9 2003-12-23 Sout... D3           0.3822  2003    51       52
#> 10 2003-12-23 Sout... D4           0.0828  2003    51       52
#> # 245 more rows
…
