…
  race_ethnicity_data
}

Within the function body, this code calls the get_acs() function from tidycensus to retrieve population data at the state level. But instead of returning the function’s default output, it updates the hard-to-remember variable names to human-readable names, such as White and Black/African American, and saves them as an object called race_ethnicity_data. The code then uses the race_ethnicity_data object to return that data when the get_acs_race_ethnicity() function is run.

To run this function, enter the following:

get_acs_race_ethnicity()

Doing so should return data with easy-to-read race and ethnicity group names:

#> # A tibble: 416 × 5
#>    GEOID NAME    variable                     estimate   moe
#>    <chr> <chr>   <chr>                           <dbl> <dbl>
#>  1 01    Alabama White                         3241003  2076
#>  2 01    Alabama Black/African American        1316314  3018
#>  3 01    Alabama American Indian/Alaska Na...    17417   941
#>  4 01    Alabama Asian                           69331  1559
#>  5 01    Alabama Native Hawaiian/Pacific I...     1594   376
#>  6 01    Alabama Other race                      12504  1867
#>  7 01    Alabama Multi-Race                     114853  3835
#>  8 01    Alabama Hispanic/Latino                224659   413
#>  9 02    Alaska  White                          434515  1067
#> 10 02    Alaska  Black/African American          22787   769
#> # 406 more rows
…
  race_ethnicity_data
}

This code adds the clean_variable_names argument to get_acs_race _ethnicity() and specifies that its value should be FALSE by default. Then, in the function body, an if statement says that if the argument is TRUE, the variable names should be overwritten by versions formatted in snake case ❶. If the argument is FALSE, the variable names remain unchanged.

If you run the function now, nothing should change, because the new argument is set to FALSE by default. Try setting clean_variable_names to TRUE as follows:

get_acs_race_ethnicity(clean_variable_names = TRUE)

This function call should return data with consistent variable names:

#> # A tibble: 416 × 5
#>    geoid name    variable                     estimate   moe
#>    <chr> <chr>   <chr>                           <dbl> <dbl>
#>  1 01    Alabama White                         3241003  2076
#>  2 01    Alabama Black/African American        1316314  3018
#>  3 01    Alabama American Indian/Alaska Na...    17417   941
#>  4 01    Alabama Asian                           69331  1559
#>  5 01    Alabama Native Hawaiian/Pacific I...     1594   376
#>  6 01    Alabama Other race                      12504  1867
#>  7 01    Alabama Multi-Race                     114853  3835
#>  8 01    Alabama Hispanic/Latino                224659   413
#>  9 02    Alaska  White                          434515  1067
#> 10 02    Alaska  Black/African American          22787   769
#> # 406 more rows
…
  if (clean_variable_names == TRUE) {
    race_ethnicity_data <- clean_names(race_ethnicity_data)
  }

  race_ethnicity_data
}

Try running your function by passing it the geography argument set to "state":

get_acs_race_ethnicity(geography = "state")

This should return the following:

#> # A tibble: 416 × 5
#>    GEOID NAME    variable                     estimate   moe
#>    <chr> <chr>   <chr>                           <dbl> <dbl>
#>  1 01    Alabama White                         3241003  2076
#>  2 01    Alabama Black/African American        1316314  3018
#>  3 01    Alabama American Indian/Alaska Na...    17417   941
#>  4 01    Alabama Asian                           69331  1559
#>  5 01    Alabama Native Hawaiian/Pacific I...     1594   376
#>  6 01    Alabama Other race                      12504  1867
#>  7 01    Alabama Multi-Race                     114853  3835
#>  8 01    Alabama Hispanic/Latino                224659   413
#>  9 02    Alaska  White                          434515  1067
#> 10 02    Alaska  Black/African American          22787   769
#> # 406 more rows
…
