…
When you’re working with multiple census variables like this, you might have trouble remembering what names like P1_001N and P1_006N mean. Fortunately, you can adjust the code in the call to get_decennial() to give these variables more meaningful names using the following syntax:

get_decennial(geography = "state",
              variables = c(total_population = "P1_001N",
                            asian_population = "P1_006N"),
              year = 2020) %>%
  arrange(NAME)

Within the variables argument, this code specifies the new names for the variables, followed by the equal sign and the original variable names. The c() function allows you to rename multiple variables at one time.

Now it’s much easier to see which variables you’re working with:

#> # A tibble: 104 × 4
#>    GEOID NAME       variable            value
#>    <chr> <chr>      <chr>               <dbl>
#>  1 01    Alabama    total_population  5024279
#>  2 01    Alabama    asian_population    76660
#>  3 02    Alaska     total_population   733391
#>  4 02    Alaska     asian_population    44032
#>  5 04    Arizona    total_population  7151502
#>  6 04    Arizona    asian_population   257430
#>  7 05    Arkansas   total_population  3011524
#>  8 05    Arkansas   asian_population    51839
#>  9 06    California total_population 39538223
#> 10 06    California asian_population  6085947
#> # ... with 94 more rows
…
With the data in this new format, now you can calculate the Asian population as a percentage of the whole by dividing the value variable by the summary_value variable. Then you drop the summary_value variable because you no longer need it after doing this calculation:

get_decennial(
  geography = "state",
  variables = c(asian_population = "P1_006N"),
  summary_var = "P1_001N",
  year = 2020
) %>%
  arrange(NAME) %>%
  mutate(pct = value / summary_value) %>%
  select(-summary_value)

The resulting output is identical to the output of the previous section:

#> # A tibble: 52 × 5
#>    GEOID NAME                 variable          value      pct
#>    <chr> <chr>                <chr>             <dbl>    <dbl>
#>  1 01    Alabama              asian_popula...   76660 0.015258
#>  2 02    Alaska               asian_popula...   44032 0.060039
#>  3 04    Arizona              asian_popula...  257430 0.035997
#>  4 05    Arkansas             asian_popula...   51839 0.017214
#>  5 06    California           asian_popula... 6085947 0.153930
#>  6 08    Colorado             asian_popula...  199827 0.034610
#>  7 09    Connecticut          asian_popula...  172455 0.047825
#>  8 10    Delaware             asian_popula...   42699 0.043133
#>  9 11    District of Columbia asian_popula...   33545 0.048648
#> 10 12    Florida              asian_popula...  643682 0.029886
#> # 42 more rows
…
